Intro to R programming and useful tips
…
read_csv('data/Ov_CI.csv')
## Rows: 400 Columns: 5
## -- Column specification --------------------------------------------------------
## Delimiter: ","
## chr (2): comp, type
## dbl (3): sorensen, unique1, unique2
## 
## i Use `spec()` to retrieve the full column specification for this data.
## i Specify the column types or set `show_col_types = FALSE` to quiet this message.
## # A tibble: 400 x 5
##    sorensen unique1 unique2 comp   type 
##       <dbl>   <dbl>   <dbl> <chr>  <chr>
##  1   0.0276   0.986  0.0622 System Snook
##  2   0.0103   0.995  0.0853 System Snook
##  3   0.0207   0.990  0.0752 System Snook
##  4   0.0625   0.967  0.370  System Snook
##  5   0.0237   0.988  0.130  System Snook
##  6   0.0191   0.990  0.0223 System Snook
##  7   0.0301   0.985  0.296  System Snook
##  8   0.0505   0.974  0.126  System Snook
##  9   0.0338   0.983  0.157  System Snook
## 10   0.0341   0.983  0.304  System Snook
## # ... with 390 more rows
…
## Mazda RX4  21   6  160 110  3.9 2.62 16.46  0  1    4    4
# 2nd row of first column
mtcars[2,1]
## [1] 21
# can call specific columns (called as a vector)
mtcars$mpg
##  [1] 21.0 21.0 22.8 21.4 18.7 18.1 14.3 24.4 22.8 19.2 17.8 16.4 17.3 15.2 10.4
## [16] 10.4 14.7 32.4 30.4 33.9 21.5 15.5 15.2 13.3 19.2 27.3 26.0 30.4 15.8 19.7
## [31] 15.0 21.4
mtcars$cyl
##  [1] 6 6 4 6 8 6 8 4 4 6 6 8 8 8 8 8 8 4 4 4 4 8 8 8 8 4 4 4 8 6 8 4
#same for tibble
d = mtcars %>% as_tibble
d[1]
## # A tibble: 32 x 1
##      mpg
##    <dbl>
##  1  21  
##  2  21  
##  3  22.8
##  4  21.4
##  5  18.7
##  6  18.1
##  7  14.3
##  8  24.4
##  9  22.8
## 10  19.2
## # ... with 22 more rows
…
