Example Code making Hypervolumes with raw mixing model results
…
Load data from the mixing models and combine together to be used to generate hypervolumes

ac = mixTable('C:/Users/wrjam/Dropbox/WorkDocs/R/Github/ExCode/Hypervolumes/data/ac4prey_ss.txt', 'ACS', ind = T, nest = T)
mc = mixTable('C:/Users/wrjam/Dropbox/WorkDocs/R/Github/ExCode/Hypervolumes/data/mc4prey_ss.txt', 'MCS', ind = T, nest = T)

df = bind_rows(ac, mc)%>% 
  mutate(ind = parse_number(code)) %>% 
  select(Species = name, System = site, ind, FB, MBD, MBZ, MP)

df

## # A tibble: 114 x 7
##    Species System   ind    FB   MBD   MBZ    MP
##    <chr>   <chr>  <dbl> <dbl> <dbl> <dbl> <dbl>
##  1 Snook   ACS        5 0.068 0.174 0.037 0.722
##  2 Snook   ACS        6 0.059 0.071 0.626 0.245
##  3 Snook   ACS        7 0.029 0.038 0.767 0.166
##  4 Snook   ACS        8 0.065 0.148 0.307 0.48 
##  5 Snook   ACS        9 0.046 0.042 0.655 0.257
##  6 Snook   ACS       14 0.098 0.272 0.062 0.568
##  7 Snook   ACS       15 0.069 0.059 0.649 0.224
##  8 Snook   ACS       16 0.044 0.241 0.632 0.084
##  9 Snook   ACS       17 0.349 0.019 0.102 0.531
## 10 Snook   ACS       18 0.076 0.469 0.138 0.317
## # ... with 104 more rows

Z-score data

When generating hypervolumes it is recommended by Blonder et al.2014 & 2018 to convert all of the axes into the same units. This can be done by taking the z-score of the values to convert units into standard deviations. By z-scoring each axis, 0 is the mean of that axis, a value of 1 means that the value is 1 standard deviation above the global mean of that axis, and a value of -1 is 1 standard deviation below the global mean of the axis.

df = df %>% 
  mutate_if(is.numeric, scale) %>%
  select(-ind)

df

## # A tibble: 114 x 6
##    Species System FB[,1] MBD[,1] MBZ[,1] MP[,1]
##    <chr>   <chr>   <dbl>   <dbl>   <dbl>  <dbl>
##  1 Snook   ACS    -0.674   0.280  -0.936  1.27 
##  2 Snook   ACS    -0.727  -0.392   1.65  -0.855
##  3 Snook   ACS    -0.905  -0.607   2.27  -1.21 
##  4 Snook   ACS    -0.692   0.110   0.250  0.192
##  5 Snook   ACS    -0.804  -0.581   1.78  -0.802
##  6 Snook   ACS    -0.497   0.920  -0.826  0.584
##  7 Snook   ACS    -0.668  -0.470   1.75  -0.949
##  8 Snook   ACS    -0.816   0.717   1.68  -1.57 
##  9 Snook   ACS     0.987  -0.731  -0.650  0.420
## 10 Snook   ACS    -0.627   2.20   -0.492 -0.534
## # ... with 104 more rows
…
# Tarpon in MCS
mcTRhvCI = HVboot(mcTR, 100, 0.75, vol = 1.7)
mcTRhvCI$Species = 'Tarpon'
mcTRhvCI$System = 'MCS'

# bind all together
hvCI = bind_rows(acSNhvCI, mcSNhvCI, acTRhvCI, mcTRhvCI)

hvCI

## # A tibble: 400 x 3
##    Volume Species System
##     <dbl> <chr>   <chr> 
##  1  137.  Snook   ACS   
##  2  113.  Snook   ACS   
##  3  138.  Snook   ACS   
##  4  101.  Snook   ACS   
##  5   88.6 Snook   ACS   
##  6  211.  Snook   ACS   
##  7  139.  Snook   ACS   
##  8   60.0 Snook   ACS   
##  9  164.  Snook   ACS   
## 10  141.  Snook   ACS   
## # ... with 390 more rows
…
#Alligator
ovAC = bootOverlap(acSN, acTR, 100, 0.75)
ovAC$comp = 'Species'
ovAC$type = 'ACS'

#McCormick
ovMC = bootOverlap(mcSN, mcTR, 100, 0.75)
ovMC$comp = 'Species'
ovMC$type = 'MCS'

# bind data together
OV = bind_rows(ovAC, ovMC)
OV

## # A tibble: 200 x 5
##    sorensen unique1 unique2 comp    type 
##       <dbl>   <dbl>   <dbl> <chr>   <chr>
##  1   0.0660   0.965   0.454 Species ACS  
##  2   0.0956   0.942   0.734 Species ACS  
##  3   0.0157   0.991   0.931 Species ACS  
##  4   0.0730   0.947   0.883 Species ACS  
##  5   0.141    0.905   0.731 Species ACS  
##  6   0.0537   0.971   0.559 Species ACS  
##  7   0.0943   0.944   0.703 Species ACS  
##  8   0.0893   0.947   0.701 Species ACS  
##  9   0.151    0.904   0.648 Species ACS  
## 10   0.0554   0.971   0.373 Species ACS  
## # ... with 190 more rows
…
