Example Code making Hypervolumes with means and sd from mixing model results
…
  return(df_tot)
  
}

Generate random points from mixing model data

oy = HVvalues(df = df, ID_rows = c('name','site'),names = c('source'), 
                mean = 'mean', sd = 'sd', n = 20,
                end_points = T, low = 'lowend', high = 'highend', 
                z_score = T)
oy

## # A tibble: 240 x 5
##    name        site      Gracilaria[,1] SPOM[,1] SSOM[,1]
##    <chr>       <chr>              <dbl>    <dbl>    <dbl>
##  1 Balanus_spp Reference         0.652    0.0500  -0.0747
##  2 Balanus_spp Reference        -0.687    0.622    1.08  
##  3 Balanus_spp Reference        -0.853    0.163   -0.543 
##  4 Balanus_spp Reference        -0.374    0.843    0.491 
##  5 Balanus_spp Reference         0.337   -0.124   -0.628 
##  6 Balanus_spp Reference         0.0902  -0.732   -0.395 
##  7 Balanus_spp Reference        -0.207   -0.347    0.409 
##  8 Balanus_spp Reference         0.429   -0.392    0.0976
##  9 Balanus_spp Reference         0.620   -0.599    0.440 
## 10 Balanus_spp Reference         0.324    0.355   -0.412 
## # ... with 230 more rows
…
  # calculate overlap
  df_hvAll$randOV[i] = hypervolume_overlap_statistics(set_rand)[2]
  
}

# calculate percent recovery
df_hvALL = df_hvALL %>% mutate(rec = sorensen/randOV)

df_hvALL

## # A tibble: 50 x 5
##      rep ref_vol res_vol sorensen randOV
##    <dbl>   <dbl>   <dbl>    <dbl>  <dbl>
##  1     1    97.0    20.0    0.303  0.667
##  2     2    90.3    22.5    0.337  0.609
##  3     3   103.     20.9    0.321  0.642
##  4     4    95.1    27.0    0.416  0.606
##  5     5    99.2    19.8    0.299  0.520
##  6     6    92.1    20.3    0.329  0.587
##  7     7    95.3    23.3    0.339  0.533
##  8     8    97.9    21.1    0.304  0.621
##  9     9   104.     16.2    0.257  0.513
## 10    10    91.5    21.3    0.322  0.503
## # ... with 40 more rows
…
